{
  "name": "TechU grupo 5",
  "coordinates": "techu5",
  "requiredRemotes": [
    "ssh://git@globaldevtools-bbva.com:7999/bbvagse/behaviors-repository.git"
  ],
  "applyGroups": "local",
  "communication": {
    "slack": "bbvatechuniversity002.slack.com"
  }
}
